<svg width="72" height="72" viewBox="0 0 72 72" fill="none" xmlns="http://www.w3.org/2000/svg">
<path d="M64 36C64 20.536 51.464 8 36 8C20.536 8 8 20.536 8 36C8 51.464 20.536 64 36 64C51.464 64 64 51.464 64 36Z" fill="#E1F2FF" fill-opacity="0.32"/>
<path d="M36 58.0227C49.3377 58.0227 60.15 57.3959 60.15 56.6227C60.15 55.8495 49.3377 55.2227 36 55.2227C22.6623 55.2227 11.85 55.8495 11.85 56.6227C11.85 57.3959 22.6623 58.0227 36 58.0227Z" fill="#C3E0F6"/>
<path d="M20.0232 48.0399C24.4864 49.8036 28.6808 48.7753 32.864 48.6003C32.1682 47.4416 31.2553 46.4378 30.1815 45.6491C29.1077 44.8605 27.8953 44.3035 26.6171 44.0117C21.7885 42.2471 15.8455 44.5907 11.4999 40.4229C10.5101 39.469 9.50914 38.4853 8.47034 37.5332C8.54594 38.0609 8.68873 38.5763 8.89733 39.0656C11.6581 43.0555 15.651 45.8853 20.0232 48.0399Z" fill="#BD9A77"/>
<path d="M20.0244 48.0442C15.634 45.8939 11.658 43.0597 8.88184 39.0742C9.22624 39.9963 9.74703 41.1626 10.2986 42.3967C11.4592 44.9948 14.7731 47.918 19.5891 50.5654C24.4037 53.213 33.3706 49.6943 33.428 49.6719C33.2586 49.3057 33.071 48.9494 32.8638 48.6046C28.6806 48.7796 24.4862 49.8079 20.0244 48.0442Z" fill="#C7A487"/>
<g style="mix-blend-mode:multiply" opacity="0.4">
<g style="mix-blend-mode:multiply" opacity="0.4">
<path d="M40.6019 25.9531C41.4027 27.0233 42.1685 28.0859 42.9315 29.0463C46.8487 33.6236 44.8762 38.8958 43.5504 44.0718L47.8315 45.2012C47.8315 45.2012 47.7462 40.3432 48.2754 37.4034C48.722 34.897 47.3415 28.2761 40.6019 25.9531Z" fill="#CEA686"/>
</g>
</g>
<path d="M30.3943 44.5386C30.2081 43.825 28.9999 43.3867 27.7959 42.9474C21.0717 41.7599 13.0147 43.4703 8.61868 37.1465L8.5669 37.1603C8.4787 37.2203 8.44648 37.3523 8.45628 37.553C9.49508 38.505 10.4975 39.4887 11.4873 40.4426C15.8483 44.6062 21.7913 42.2625 26.6171 44.0203C28.0885 44.3554 29.4703 45.0405 30.6519 46.0216C31.8335 47.0028 32.7841 48.2528 33.4281 49.6728C33.4281 49.6728 34.7889 53.5552 44.7037 56.8739C48.0441 57.9912 50.8441 57.9187 53.1569 57.2565C44.3957 57.6569 35.7787 53.2809 30.3943 44.5386Z" fill="#E2D0B7"/>
<path d="M46.4706 43.7247L45.338 43.383L43.5152 42.8283C37.6562 41.015 31.7104 39.5344 25.7072 38.3929L25.6162 38.3773C16.3776 36.6807 9.7248 36.1682 9.7248 36.1682C9.5988 36.1094 9.46159 36.0848 9.32579 36.0967C9.18999 36.1086 9.06122 36.1567 8.94922 36.2364C13.3466 42.567 21.4036 40.8565 28.1264 42.0373C29.3304 42.4766 30.5372 42.9149 30.7234 43.6285C36.1078 52.3708 44.729 56.757 53.486 56.3575C58.0024 55.0548 60.5672 51.4765 61.431 50.1567C62.663 48.2883 61.0516 48.1137 46.4706 43.7247Z" fill="#D9C6A8"/>
<path d="M39.7393 40.6558C42.4679 41.4279 45.0201 41.9212 47.8537 41.7434C47.8733 41.2275 47.8999 40.6934 47.9377 40.1562C45.1307 40.5412 42.6471 40.2027 39.7393 40.6558Z" fill="#222F81"/>
<path d="M41.7611 39.6569C39.5561 39.5418 37.6914 39.209 35.3394 39.3837C37.4408 39.9709 39.6359 40.0643 41.7611 39.6569Z" fill="#222F81"/>
<path d="M25.9719 35.1387C25.6653 36.1653 25.4203 37.2107 25.2341 38.2692C25.5743 38.4267 25.9229 38.5823 26.2785 38.7396C26.5431 37.6767 26.8637 36.6302 27.2375 35.6043C26.8217 35.479 26.3933 35.3036 25.9719 35.1387Z" fill="#6D78BD"/>
<path d="M26.28 38.7419C31.46 41.0345 38.0876 43.4033 43.9648 43.8775C44.5752 43.9268 45.1842 43.9684 45.754 43.9706C46.503 43.9835 47.0812 43.9712 47.8148 43.9428C47.819 43.3402 47.8512 42.5699 47.8638 41.7428C45.0316 41.9206 42.4794 41.4272 39.7494 40.6551C42.6586 40.2022 45.1422 40.5406 47.945 40.1441C48.0066 39.3043 48.0906 38.4584 48.2138 37.7011C41.1746 39.0156 34.0556 38.0488 27.2502 35.6035C26.8722 36.6301 26.5474 37.6778 26.28 38.7419ZM35.3394 39.3827C37.676 39.1791 39.5478 39.5099 41.743 39.6607C42.0846 39.5956 42.422 39.5189 42.751 39.4325C42.422 39.5189 42.0874 39.6071 41.743 39.6607C39.6234 40.0636 37.4352 39.9686 35.3394 39.3827C34.9936 39.2928 34.652 39.1892 34.3216 39.0702C34.6506 39.1854 34.9936 39.2928 35.3394 39.3827Z" fill="#3949AB"/>
<path d="M41.7833 26.4288C41.3983 26.2488 41.0035 26.09 40.6031 25.9532C39.3151 25.5192 37.9809 25.2587 36.6341 25.1781C35.6625 25.0588 34.6797 25.1411 33.7459 25.4198C30.8283 28.0621 28.6205 31.8558 27.2415 35.6167C34.0469 38.0618 41.1659 39.0287 48.2051 37.7142L48.2569 37.4085C48.6909 35.0496 47.5037 29.0736 41.7833 26.4288Z" fill="#D9C6A8"/>
<path d="M33.7459 25.4199C29.2463 26.7901 27.0161 31.6319 25.9717 35.1358C26.3931 35.3007 26.8173 35.4606 27.2429 35.6245C28.6205 31.8557 30.8283 28.062 33.7459 25.4199Z" fill="#D2B897"/>
<g style="mix-blend-mode:multiply" opacity="0.3">
<g style="mix-blend-mode:multiply" opacity="0.3">
<path d="M41.7836 26.4297C42.38 27.5074 42.8419 28.6555 43.1611 29.8474C44.3427 34.3302 45.019 39.2423 43.9718 43.8752C44.5822 43.9244 45.1911 43.9659 45.7609 43.9682C46.5099 43.9811 47.0882 43.9687 47.8218 43.9403C47.8064 41.7502 47.9576 39.5648 48.2754 37.4046C48.6912 35.0505 47.504 29.0746 41.7836 26.4297Z" fill="#E6C4A9"/>
</g>
</g>
<path d="M55.1169 19.0657V18.1207C55.1169 17.5794 54.6772 17.1406 54.1368 17.1406C53.595 17.1406 53.1569 17.5794 53.1569 18.1207V19.0657C53.1569 19.6069 53.595 20.0457 54.1368 20.0457C54.6772 20.0457 55.1169 19.6069 55.1169 19.0657Z" fill="#FDD736"/>
<path d="M55.1169 24.177V23.232C55.1169 22.6907 54.6772 22.252 54.1368 22.252C53.595 22.252 53.1569 22.6907 53.1569 23.232V24.177C53.1569 24.7182 53.595 25.157 54.1368 25.157C54.6772 25.157 55.1169 24.7182 55.1169 24.177Z" fill="#FDD736"/>
<path d="M52.177 20.2109H51.232C50.6902 20.2109 50.252 20.6497 50.252 21.191C50.252 21.7322 50.6902 22.1709 51.232 22.1709H52.177C52.7188 22.1709 53.157 21.7322 53.157 21.191C53.157 20.6497 52.7188 20.2109 52.177 20.2109Z" fill="#FDD736"/>
<path d="M57.0421 20.2109H56.0971C55.5553 20.2109 55.1171 20.6497 55.1171 21.191C55.1171 21.7322 55.5553 22.1709 56.0971 22.1709H57.0421C57.5825 22.1709 58.0221 21.7322 58.0221 21.191C58.0221 20.6497 57.5825 20.2109 57.0421 20.2109Z" fill="#FDD736"/>
</svg>
